capitulo-02-dados-economicos – tiagolafonso.github.io
…
[1] "Time"     "gdp"      "deflator" "x"        "m"        "trade"    "pop"     

Para efetuar cálculos com os dados, podemos utilizar a função mutate()para adicionar novas colunas ao data frame. Por exemplo, calcular o PIB per capita:

\[
gdppc_t = \frac{gdp_t}{pop_t}
\]

wdi <- wdi |> mutate(gdp_pc = gdp / pop)

wdi |> select(Time, gdp_pc)

# A tibble: 55 × 2
    Time gdp_pc
   <dbl>  <dbl>
 1  1970   134.
 2  1971   151.
 3  1972   176.
 4  1973   214.
 5  1974   253.
 6  1975   271.
 7  1976   328.
 8  1977   433.
 9  1978   539.
10  1979   672.
# ℹ 45 more rows
Em econometria as variáveis per capita são úteis para comparar indicadores económicos entre diferentes unidades (países, regiões, etc.) ao longo do tempo, controlando o efeito do tamanho da população.

Variação anual do PIB em unidades ou primeira diferença do PIB de ordem 1:

\[
\Delta gdp_t = gdp_t - gdp_{t-1}
\]

e no R por:

wdi <- wdi |> mutate(d_gdp = gdp - lag(gdp))

wdi |> select(Time, gdp, d_gdp)

# A tibble: 55 × 3
    Time        gdp      d_gdp
   <dbl>      <dbl>      <dbl>
 1  1970 1162721000         NA
 2  1971 1302027000  139306000
 3  1972 1516157000  214130000
 4  1973 1845576000  329419000
 5  1974 2218820000  373244000
 6  1975 2466820000  248000000
 7  1976 3066191000  599371000
 8  1977 4092805000 1026614000
 9  1978 5148485000 1055680000
10  1979 6495968000 1347483000
# ℹ 45 more rows
…
ou com logaritmos:

\[
\Delta lgdp_t = ln(gdp_t) - ln(gdp_{t-1})
\]

O logarítmo de uma variável é frequentemente utilizado para linearizar relações não lineares e para estabilizar a variância. Para calcular o logarítmo da variável gdp(\(lgdp_t=ln(gdp)_t\)) por exemplo:

wdi <- wdi |> mutate(ln_gdp = log(gdp))

wdi |> select(Time, gdp, d_gdp, ln_gdp)

# A tibble: 55 × 4
    Time        gdp      d_gdp ln_gdp
   <dbl>      <dbl>      <dbl>  <dbl>
 1  1970 1162721000         NA   20.9
 2  1971 1302027000  139306000   21.0
 3  1972 1516157000  214130000   21.1
 4  1973 1845576000  329419000   21.3
 5  1974 2218820000  373244000   21.5
 6  1975 2466820000  248000000   21.6
 7  1976 3066191000  599371000   21.8
 8  1977 4092805000 1026614000   22.1
 9  1978 5148485000 1055680000   22.4
10  1979 6495968000 1347483000   22.6
# ℹ 45 more rows

No R a função log() é utilizada para calcular o logaritmo natural. Para calcular o logaritmo de base 10 é necessário utilizar mais um argumento da função log(gdp,base=10) ou log10().

Também é possível efetuar o cálculo do logaritmo e das diferneças no mesmo bloco de código dentro da função mutate() e separados por vírgula.

wdi <- wdi |> mutate(ln_gdp = log(gdp),
                    d_lgdp = ln_gdp - lag(ln_gdp))

wdi |> select(Time, gdp, d_gdp, ln_gdp, d_lgdp)

# A tibble: 55 × 5
    Time        gdp      d_gdp ln_gdp d_lgdp
   <dbl>      <dbl>      <dbl>  <dbl>  <dbl>
 1  1970 1162721000         NA   20.9 NA    
 2  1971 1302027000  139306000   21.0  0.113
 3  1972 1516157000  214130000   21.1  0.152
 4  1973 1845576000  329419000   21.3  0.197
 5  1974 2218820000  373244000   21.5  0.184
 6  1975 2466820000  248000000   21.6  0.106
 7  1976 3066191000  599371000   21.8  0.218
 8  1977 4092805000 1026614000   22.1  0.289
 9  1978 5148485000 1055680000   22.4  0.229
10  1979 6495968000 1347483000   22.6  0.232
# ℹ 45 more rows

Nos modelos econométricos são utilizadas variáveis a preços constantes. Isto permite eliminar o efeito da inflação e refletir apenas as variações na quantidade. Enquanto que o PIB nominal por exemplo é o valor total da produção de bens e serviços a preços correntes, o PIB real é o valor total da produção a preços constantes, ajustado pela inflação. O PIB real é calculado utilizando um deflator do PIB, que é um índice de preços que mede a variação dos preços ao longo do tempo.

O PIB a preços constantes é dado por: \[
PIB_{real} = \frac{PIB_{nominal}}{Deflator_{PIB}} \times 100
\]

De acordo com os dados wdi, a variável gdp representa o PIB a preços correntes e o deflator representa o deflator. Então o PIB real é calculado da seguinte forma:

wdi <- wdi |> mutate(gdp_r = gdp / deflator * 100)

wdi |> select(Time, gdp, gdp_r)

# A tibble: 55 × 3
    Time        gdp       gdp_r
   <dbl>      <dbl>       <dbl>
 1  1970 1162721000 65717083000
 2  1971 1302027000 70075211000
 3  1972 1516157000 75692227000
 4  1973 1845576000 84170265000
 5  1974 2218820000 85132214000
 6  1975 2466820000 81430979000
 7  1976 3066191000 87049905000
 8  1977 4092805000 91926960000
 9  1978 5148485000 94515592000
10  1979 6495968000 99845267000
# ℹ 45 more rows
…
